{
  "name": "Lecture",
  "base": "PersistedModel",
  "idInjection": true,
  "options": {
    "validateUpsert": true
  },
  "properties": {
    "title": {
      "type": "string",
      "required": true
    },
    "estimatedTime": {
      "type": "number",
      "required": true
    }
  },
  "validations": [],
  "relations": {
    "lectureDetails": {
      "type": "hasOne",
      "model": "LectureDetails",
      "foreignKey": "",
      "options": {
        "nestRemoting": true
      }
    }
  },
  "acls": [],
  "methods": {}
}
