{
  "name": "Notification",
  "base": "PersistedModel",
  "idInjection": true,
  "options": {
    "validateUpsert": true
  },
  "properties": {
    "title": {
      "type": "string",
      "required": true
    },
    "description": {
      "type": "string",
      "required": true
    },
    "isRead": {
      "type": "boolean",
      "required": true,
      "default": false
    },
    "notificationType": {
      "type": "string",
      "required": true,
      "default": "change with course/instructor"
    },
    "instructorId": {
      "type": "string",
      "required": true
    },
    "courseId": {
      "type": "string",
      "required": true
    }
  },
  "validations": [],
  "relations": {},
  "acls": [],
  "methods": {}
}
